# Netscape HTTP Cookie File
# http://curl.haxx.se/docs/http-cookies.html
# This file was generated by libcurl! Edit at your own risk.

i.instagram.com	FALSE	/	FALSE	1495531220	csrftoken	754a098b6ec335c3349a0954f385cd1d
i.instagram.com	FALSE	/	FALSE	2094801613	mid	V0Qc1QABAAFAXC9FdzWN44XPRGCd
i.instagram.com	FALSE	/	FALSE	1464085220	s_network	
#HttpOnly_i.instagram.com	FALSE	/	FALSE	1471857614	sessionid	IGSCdd6da441becafeeaa7b0d67192279c4bcc472f2b7599aed4cf1fff65cb4f94a2%3AEL0LXGz343XiYYY8PATRhL470PpuAwKP%3A%7B%22_token_ver%22%3A2%2C%22_auth_user_id%22%3A3147891158%2C%22_token%22%3A%223147891158%3A0X6BvLc2SRioPHeWBEVREeaf7bwyH6Ys%3A41c8a821ca56baee8191e0134b325bd38a2cad183a85e371669a93efd7aec600%22%2C%22asns%22%3A%7B%22185.51.214.58%22%3A50670%2C%22time%22%3A1464081622%7D%2C%22_auth_user_backend%22%3A%22accounts.backends.CaseInsensitiveModelBackend%22%2C%22last_refreshed%22%3A1464081622.23225%2C%22_platform%22%3A1%7D
i.instagram.com	FALSE	/	FALSE	1471857614	ds_user	nusrvtest
i.instagram.com	FALSE	/	FALSE	1471857620	ds_user_id	3147891158
i.instagram.com	FALSE	/	FALSE	2094801617	is_starred_enabled	yes
i.instagram.com	FALSE	/	FALSE	1464168017	igfl	nusrvtest
